MSU Grade Analysis
…
library("rvest")
library("stringr")

codes_and_names <- read_html("https://schedule.msu.edu/") %>%
  #the following is the html tag to access a dropdown with all majors
  html_nodes("#MainContent_SrearchUC_ddlSubject option") %>%
  html_text() %>%
  str_split(":", simplify = TRUE) %>%
  as_tibble() %>%
  rename(subject_code = V1,
         subject_name = V2)

codes_and_names

## # A tibble: 236 x 2
##    subject_code                    subject_name
##           <chr>                           <chr>
##  1         AAAS  African American & Afr Studies
##  2          AAE       Advanced Academic English
##  3          ABM         Agribusiness Management
##  4          ACC                      Accounting
##  5          ACM    Arts and Cultural Management
##  6          ACR       Comm Ag Rec & Res Studies
##  7          ADV                     Advertising
##  8           AE        Agricultural Engineering
##  9          AEC          Agricultural Economics
## 10          AEE               ANR Edu & Com Sys
## # ... with 226 more rows
…
Due the format of the grade information, we have to get a bit creative with calculating the summary stats of each subject by using sum and rep for the mean and median grade respsectively.

gpas_by_subject <- tidy_grades %>%
  group_by(subject_code, subject_name) %>%
  #reasonable amount of students since 2011 to lose outliers
  #filter(sum(quantity) > 5000) %>% 
  summarise(mean_grade = sum(grade*quantity)/sum(quantity),
            median_grade = median(rep(grade, quantity), na.rm = TRUE),
            freq = sum(quantity))
            #this will be the number of grades awarded in total sicne 2017

gpas_by_subject

## # A tibble: 186 x 5
## # Groups:   subject_code [?]
##    subject_code                    subject_name mean_grade median_grade
##           <chr>                           <chr>      <dbl>        <dbl>
##  1         AAAS  African American & Afr Studies   3.446809          3.5
##  2          ABM         Agribusiness Management   2.924419          3.0
##  3          ACC                      Accounting   3.009304          3.0
##  4          ACM    Arts and Cultural Management   3.530822          4.0
##  5          ACR       Comm Ag Rec & Res Studies   3.540628          4.0
##  6          ADV                     Advertising   3.320687          3.5
##  7           AE        Agricultural Engineering   2.981266          3.5
##  8          AEC          Agricultural Economics   3.558370          3.5
##  9         AESC    Applied Engineering Sciences   3.546207          3.5
## 10          AFR               African Languages   3.655738          4.0
## # ... with 176 more rows, and 1 more variables: freq <dbl>

Easiest majors:

gpas_by_subject %>%
  arrange(desc(mean_grade))

## # A tibble: 186 x 5
## # Groups:   subject_code [186]
##    subject_code                    subject_name mean_grade median_grade
##           <chr>                           <chr>      <dbl>        <dbl>
##  1          OST            Osteopathic Medicine   3.975904            4
##  2           IM               Internal Medicine   3.940000            4
##  3          GEN                        Genetics   3.916667            4
##  4          AMS                American Studies   3.914894            4
##  5          ROM               Romance Languages   3.880000            4
##  6          CSX   Cosponsored Study Abroad Exch   3.877193            4
##  7          FRS                Forensic Science   3.850000            4
##  8           YD               Youth Development   3.846154            4
##  9          LIR  Labor and Industrial Relations   3.828323            4
## 10           ED                       Education   3.821172            4
## # ... with 176 more rows, and 1 more variables: freq <dbl>

Hardest majors:

gpas_by_subject %>%
  arrange(mean_grade)

## # A tibble: 186 x 5
## # Groups:   subject_code [186]
##    subject_code                    subject_name mean_grade median_grade
##           <chr>                           <chr>      <dbl>        <dbl>
##  1          MTH                     Mathematics   2.570665            3
##  2          TSM   Technology Systems Management   2.728029            3
##  3          BMB     Biochem & Molecular Biology   2.748555            3
##  4           EC                       Economics   2.780165            3
##  5          CSE  Computer Science & Engineering   2.804285            3
##  6          PSL                      Physiology   2.808426            3
##  7           BS              Biological Science   2.873221            3
##  8          ZOL              Zoology (see IBIO)   2.905895            3
##  9          ABM         Agribusiness Management   2.924419            3
## 10          MSE   Materials Sci and Engineering   2.933321            3
## # ... with 176 more rows, and 1 more variables: freq <dbl>
…
by_semester_subject <- tidy_grades_season %>%
  group_by(semester, subject_code, subject_name) %>%
  summarise(mean_grade = sum(grade*quantity)/sum(quantity))

sem_sub_slopes <- by_semester_subject %>%
  ungroup() %>%
  filter(!is.na(mean_grade)) %>%
  nest(-subject_code, -subject_name) %>%
  mutate(models = map(data, ~ lm(mean_grade ~ semester, .))) %>%
  mutate(tidied = map(models, tidy)) %>%
  unnest(tidied)

sem_sub_slopes

## # A tibble: 329 x 7
##    subject_code               subject_name        term     estimate
##           <chr>                      <chr>       <chr>        <dbl>
##  1          ABM    Agribusiness Management (Intercept)  2.827239122
##  2          ABM    Agribusiness Management    semester  0.011020537
##  3          ACC                 Accounting (Intercept)  2.913574110
##  4          ACC                 Accounting    semester  0.009301030
##  5          ACR  Comm Ag Rec & Res Studies (Intercept)  3.429859418
##  6          ACR  Comm Ag Rec & Res Studies    semester  0.027613059
##  7          ADV                Advertising (Intercept)  3.372543178
##  8          ADV                Advertising    semester -0.005983216
##  9           AE   Agricultural Engineering (Intercept)  3.228258303
## 10           AE   Agricultural Engineering    semester -0.021493529
## # ... with 319 more rows, and 3 more variables: std.error <dbl>,
## #   statistic <dbl>, p.value <dbl>
…
